{
  "data":
  [  
      {  
          "data":{  
              "name":"Lazy Folder 0",
              "size":"75kb",
              "type":"Folder"
          },
          "leaf": false
      },
      {  
          "data":{  
              "name":"Lazy Folder 1",
              "size":"150kb",
              "type":"Folder"
          },
          "leaf": false
      }
  ]
}
